{
    "male": [
        {
            "title": "glasses",
            "label": "glasses",
            "id": 1
        },
        {
            "title": "hats",
            "label": "hats",
            "id": 2
        },
        {
            "title": "underwear",
            "label": "underwear",
            "id": 3
        },
        {
            "title": "socks",
            "label": "socks",
            "id": 4
        },
        {
            "title": "shoes",
            "label": "shoes",
            "id": 5
        },
        {
            "title": "trousers",
            "label": "trousers",
            "id": 6
        },
        {
            "title": "t_shirts",
            "label": "t_shirts",
            "id": 7
        },
        {
            "title": "shirts",
            "label": "shirts",
            "id": 8
        },
        {
            "title": "suits",
            "label": "suits",
            "id": 9
        },
        {
            "title": "jackets",
            "label": "jackets",
            "id": 10
        }
    ],
    "female": [
        {
            "title": "underwear",
            "label": "underwear-w",
            "id": 1
        },
        {
            "title": "tights",
            "label": "tights",
            "id": 2
        },
        {
            "title": "skirts",
            "label": "skirts",
            "id": 3
        },
        {
            "title": "shoes",
            "label": "shoes-w",
            "id": 4
        },
        {
            "title": "trousers",
            "label": "trousers-w",
            "id": 5
        },
        {
            "title": "dresses",
            "label": "dresses",
            "id": 6
        },
        {
            "title": "sweatshirts",
            "label": "sweatshirts",
            "id": 7
        },
        {
            "title": "corsets",
            "label": "corsets",
            "id": 8
        },
        {
            "title": "coats",
            "label": "coats",
            "id": 9
        },
        {
            "title": "hats",
            "label": "hats-w",
            "id": 10
        },
        {
            "title": "glasses",
            "label": "glasses",
            "id": 11
        },
        {
            "title": "handbags",
            "label": "handbags",
            "id": 12
        }
    ]
}
