[
    {
        "title": "fantastic",
        "label": "fantastic",
        "stype": 1
    },
    {
        "title": "arab_theme",
        "label": "arab-theme",
        "stype": 2
    },
    {
        "title": "european_theme",
        "label": "european-theme",
        "stype": 3
    },
    {
        "title": "latin_theme",
        "label": "latin-theme",
        "stype": 4
    },
    {
        "title": "asian_theme",
        "label": "asian-theme",
        "stype": 5
    },
    {
        "title": "african_theme",
        "label": "african-theme",
        "stype": 6
    },
    {
        "title": "hindu_theme",
        "label": "hindu-theme",
        "stype": 7
    }
]
